%YAML 1.1
%TAG !u! tag:unity3d.com,2011:
--- !u!162 &1
EditorUserSettings:
  m_ObjectHideFlags: 0
  serializedVersion: 4
  m_ConfigSettings:
    RecentlyUsedScenePath-0:
      value: 22424703114646092922052518377e0305120c650930273d3d251820add23d3febe314e6e32316322d07fd2c0b32002bfb050738f9071f1f1801f34123f6171a15e717c103e11108ce0b0cc1c11cc5eadad8e7e5d4fef3d1d1d1eee7faf9fae1
      flags: 0
    RecentlyUsedScenePath-1:
      value: 22424703114646092922052518377e0305120c650930273d3d251820adb17a0bebea26e5e216363b3116a1290a371526
      flags: 0
    RecentlyUsedScenePath-2:
      value: 22424703114646092922052518377e0305120c650930273d3d251820adb27a15f7eb22e0f7363a2f150be834102d4f2afc031d12
      flags: 0
    RecentlyUsedScenePath-3:
      value: 224247031146467802080a2b1e075e1e151257192f2d28353e662e27e3f22076f7e93ffdfe
      flags: 0
    RecentlyUsedScenePath-4:
      value: 2242470311464608292b02265e365119020e
      flags: 0
    RecentlyUsedScenePath-5:
      value: 22424703114646680e0b0227036c6c111b07142f1f2b233e2867083debf42d
      flags: 0
    RecentlyUsedScenePath-6:
      value: 22424703114646560c07026c052d56040f
      flags: 0
    RecentlyUsedScenePath-7:
      value: 22424703114646680e0b0227036c0c3433191c6439262f2434
      flags: 0
    RecentlyUsedScenePath-8:
      value: 22424703114646680e0b0227036c6c0417050c6439262f2434
      flags: 0
    RecentlyUsedScenePath-9:
      value: 22424703114646680e0b0227036c52111f19563f22213229
      flags: 0
    vcSharedLogLevel:
      value: 0d5e400f0650
      flags: 0
  m_VCAutomaticAdd: 1
  m_VCDebugCom: 0
  m_VCDebugCmd: 0
  m_VCDebugOut: 0
  m_SemanticMergeMode: 2
  m_VCShowFailedCheckout: 1
  m_VCOverwriteFailedCheckoutAssets: 1
  m_VCProjectOverlayIcons: 1
  m_VCHierarchyOverlayIcons: 1
  m_VCOtherOverlayIcons: 1
  m_VCAllowAsyncUpdate: 1
